<?xml version="1.0" encoding="UTF-8" standalone="no"?>
<!-- Created with Inkscape (http://www.inkscape.org/) -->

<svg
   width="172.24837mm"
   height="206.68735mm"
   viewBox="0 0 172.24837 206.68735"
   version="1.1"
   id="svg5"
   inkscape:version="1.2.1 (9c6d41e410, 2022-07-14, custom)"
   sodipodi:docname="bacino.svg"
   inkscape:export-filename="/home/mello/repos/ginnastica_posturale/img/seduto/riposo.png"
   inkscape:export-xdpi="300"
   inkscape:export-ydpi="300"
   xmlns:inkscape="http://www.inkscape.org/namespaces/inkscape"
   xmlns:sodipodi="http://sodipodi.sourceforge.net/DTD/sodipodi-0.dtd"
   xmlns="http://www.w3.org/2000/svg"
   xmlns:svg="http://www.w3.org/2000/svg">
  <sodipodi:namedview
     id="namedview7"
     pagecolor="#000000"
     bordercolor="#666666"
     borderopacity="1.0"
     inkscape:pageshadow="2"
     inkscape:pageopacity="0"
     inkscape:pagecheckerboard="0"
     inkscape:document-units="mm"
     showgrid="false"
     inkscape:snap-bbox="true"
     inkscape:zoom="0.81691623"
     inkscape:cx="-209.93585"
     inkscape:cy="381.9241"
     inkscape:window-width="1920"
     inkscape:window-height="1021"
     inkscape:window-x="1920"
     inkscape:window-y="0"
     inkscape:window-maximized="1"
     inkscape:current-layer="layer1"
     showguides="true"
     inkscape:guide-bbox="true"
     inkscape:snap-global="false"
     inkscape:showpageshadow="2"
     inkscape:deskcolor="#000000" />
  <defs
     id="defs2" />
  <g
     inkscape:label="Layer 1"
     inkscape:groupmode="layer"
     id="layer1"
     transform="translate(-44.194153,-68.141413)">
    <rect
       style="fill:#7b58a6;fill-opacity:0.16470589;stroke-width:0.160315;stroke-linecap:round;stroke-miterlimit:10;paint-order:fill markers stroke"
       id="rect337"
       width="72.657463"
       height="172.24837"
       x="-233.38721"
       y="44.194153"
       rx="0"
       ry="0"
       inkscape:export-filename="/home/mello/repos/ginnastica_posturale/img/seduto/rect1883.png"
       inkscape:export-xdpi="300"
       inkscape:export-ydpi="300"
       transform="rotate(-90)" />
    <rect
       style="fill:#f68686;fill-opacity:0.245876;stroke:#ffffff;stroke-width:0.4;stroke-linecap:round;stroke-miterlimit:10;stroke-dasharray:none;stroke-opacity:1;paint-order:fill markers stroke"
       id="rect1604"
       width="11.585219"
       height="16.568171"
       x="-203.57291"
       y="69.786476"
       rx="10.822728"
       ry="10.822728"
       transform="rotate(-90)" />
    <rect
       style="fill:#f68686;fill-opacity:0.245876;stroke:#ffffff;stroke-width:0.4;stroke-linecap:round;stroke-miterlimit:10;stroke-dasharray:none;stroke-opacity:1;paint-order:fill markers stroke"
       id="rect1604-0"
       width="11.585219"
       height="16.568171"
       x="-103.11704"
       y="69.786476"
       rx="10.822728"
       ry="10.822728"
       transform="rotate(-90)" />
    <ellipse
       style="fill:#f68686;fill-opacity:0.245876;stroke:#ffffff;stroke-width:0.353895;stroke-linecap:round;stroke-miterlimit:10;stroke-dasharray:none;stroke-opacity:1;paint-order:fill markers stroke"
       id="path846"
       cx="-98.944977"
       cy="61.803577"
       rx="11.183252"
       ry="14.402805"
       transform="rotate(-90)" />
    <path
       id="rect1500"
       style="fill:#f68686;fill-opacity:0.245876;stroke:#ffffff;stroke-width:0.4;stroke-linecap:round;stroke-miterlimit:10;paint-order:fill markers stroke"
       transform="rotate(-90)"
       d="m -208.76123,79.692596 h 21.72619 c 5.9958,0 13.41589,5.416707 10.82274,10.822738 l -16.93333,35.301546 c -2.59315,5.40603 -4.82694,10.82274 -10.82274,10.82274 h -4.79286 c -5.9958,0 -10.82274,-4.82694 -10.82274,-10.82274 V 90.515334 c 0,-5.995797 4.82694,-10.822738 10.82274,-10.822738 z"
       sodipodi:nodetypes="sssssssss" />
    <rect
       style="fill:#f68686;fill-opacity:0.245876;stroke:#ffffff;stroke-width:0.4;stroke-linecap:round;stroke-miterlimit:10;stroke-dasharray:none;stroke-opacity:1;paint-order:fill markers stroke"
       id="rect1708"
       width="9.4076662"
       height="37.845959"
       x="83.7248"
       y="209.63622"
       rx="10.822728"
       ry="10.822728"
       transform="rotate(0.17451189)"
       inkscape:transform-center-x="-0.20835755"
       inkscape:transform-center-y="12.472126" />
    <rect
       style="fill:#f68686;fill-opacity:0.245876;stroke:#ffffff;stroke-width:0.4;stroke-linecap:round;stroke-miterlimit:10;stroke-dasharray:none;stroke-opacity:1;paint-order:fill markers stroke"
       id="rect1708-3"
       width="9.4076662"
       height="37.845959"
       x="83.879875"
       y="236.51425"
       rx="10.822728"
       ry="10.822728"
       transform="rotate(0.17451189)"
       inkscape:transform-center-x="-0.28156672"
       inkscape:transform-center-y="39.35051" />
    <rect
       style="fill:#f68686;fill-opacity:0.245876;stroke:#ffffff;stroke-width:0.4;stroke-linecap:round;stroke-miterlimit:10;stroke-dasharray:none;stroke-opacity:1;paint-order:fill markers stroke"
       id="rect1708-6"
       width="9.4076662"
       height="37.845959"
       x="-95.679466"
       y="-184.60919"
       rx="10.822728"
       ry="10.822728"
       transform="rotate(-179.16965)"
       inkscape:transform-center-x="-0.58680603"
       inkscape:transform-center-y="-12.788146" />
    <rect
       style="fill:#f68686;fill-opacity:0.245876;stroke:#ffffff;stroke-width:0.4;stroke-linecap:round;stroke-miterlimit:10;stroke-dasharray:none;stroke-opacity:1;paint-order:fill markers stroke"
       id="rect1708-3-7"
       width="9.4076662"
       height="37.845959"
       x="-95.524391"
       y="-157.73114"
       rx="10.822728"
       ry="10.822728"
       transform="rotate(-179.16965)"
       inkscape:transform-center-x="-0.82125953"
       inkscape:transform-center-y="-39.665623" />
    <ellipse
       style="fill:#f68686;fill-opacity:0.245876;stroke:#ffffff;stroke-width:0.4;stroke-linecap:round;stroke-miterlimit:10;stroke-dasharray:none;stroke-opacity:1;paint-order:fill markers stroke"
       id="path846-3"
       cx="-190.72116"
       cy="61.803577"
       rx="14.309823"
       ry="14.379753"
       transform="rotate(-90)" />
    <rect
       style="fill:#f68686;fill-opacity:0.245876;stroke:#ffffff;stroke-width:0.300962;stroke-linecap:round;stroke-miterlimit:10;stroke-dasharray:none;stroke-opacity:1;paint-order:fill markers stroke"
       id="rect1500-6"
       width="24.510611"
       height="57.046062"
       x="-110.01589"
       y="81.373039"
       ry="10.822738"
       rx="10.822738"
       transform="rotate(-90)" />
    <rect
       style="fill:#f68686;fill-opacity:0.245876;stroke:#ffffff;stroke-width:0.4;stroke-linecap:round;stroke-miterlimit:10;stroke-dasharray:none;stroke-opacity:1;paint-order:fill markers stroke"
       id="rect1708-5-9"
       width="12.98031"
       height="48.68248"
       x="-174.93144"
       y="-11.237532"
       rx="10.822728"
       ry="10.822728"
       inkscape:transform-center-y="-14.597058"
       transform="rotate(-143.84182)"
       inkscape:transform-center-x="-10.667077" />
    <rect
       style="fill:#f68686;fill-opacity:0.245876;stroke:#ffffff;stroke-width:0.4;stroke-linecap:round;stroke-miterlimit:10;stroke-dasharray:none;stroke-opacity:1;paint-order:fill markers stroke"
       id="rect1708-5-3-2"
       width="12.98031"
       height="48.68248"
       x="80.593971"
       y="144.07965"
       rx="10.822728"
       ry="10.822728"
       transform="rotate(-34.090185)"
       inkscape:transform-center-x="-10.892051"
       inkscape:transform-center-y="16.093429" />
    <rect
       style="fill:#f68686;fill-opacity:0.245876;stroke:#ffffff;stroke-width:0.23995;stroke-linecap:round;stroke-miterlimit:10;stroke-dasharray:none;stroke-opacity:1;paint-order:fill markers stroke"
       id="rect1708-3-7-8"
       width="9.5677156"
       height="13.391082"
       x="-108.66508"
       y="86.981308"
       rx="10.822728"
       ry="10.822728"
       transform="rotate(-90)" />
    <rect
       style="fill:#7b58a6;fill-opacity:0.16470589;stroke-width:0.0323654;stroke-linecap:round;stroke-miterlimit:10;paint-order:fill markers stroke"
       id="rect1883-7"
       width="2.9744332"
       height="171.49182"
       x="-114.27032"
       y="44.194153"
       rx="0"
       ry="0"
       inkscape:export-filename="/home/mello/repos/ginnastica_posturale/img/seduto/rect1883.png"
       inkscape:export-xdpi="300"
       inkscape:export-ydpi="300"
       transform="rotate(-90)" />
    <rect
       style="fill:#f68686;fill-opacity:0.245876;stroke:#ffffff;stroke-width:0.4;stroke-linecap:round;stroke-miterlimit:10;stroke-dasharray:none;stroke-opacity:1;paint-order:fill markers stroke"
       id="rect307"
       width="12.98031"
       height="48.68248"
       x="9.5278091"
       y="241.18057"
       rx="10.822728"
       ry="10.822728"
       inkscape:transform-center-y="14.597053"
       transform="matrix(-0.80739118,0.59001651,0.59001651,0.80739118,0,0)"
       inkscape:transform-center-x="-10.667072" />
    <rect
       style="fill:#f68686;fill-opacity:0.245876;stroke:#ffffff;stroke-width:0.4;stroke-linecap:round;stroke-miterlimit:10;stroke-dasharray:none;stroke-opacity:1;paint-order:fill markers stroke"
       id="rect309"
       width="12.98031"
       height="48.68248"
       x="255.82451"
       y="-114.83041"
       rx="10.822728"
       ry="10.822728"
       transform="matrix(0.82815636,0.56049714,0.56049714,-0.82815636,0,0)"
       inkscape:transform-center-x="-10.892048"
       inkscape:transform-center-y="-16.093432" />
  </g>
</svg>
