<?xml version="1.0" encoding="UTF-8" standalone="no"?>
<!-- Created with Inkscape (http://www.inkscape.org/) -->

<svg
   width="55.076443mm"
   height="158.67046mm"
   viewBox="0 0 55.076445 158.67046"
   version="1.1"
   id="svg5"
   inkscape:version="1.1.1 (3bf5ae0d25, 2021-09-20)"
   sodipodi:docname="braccia_su.svg"
   inkscape:export-filename="/home/mello/repos/ginnastica_posturale/img/seduto/braccia_su.png"
   inkscape:export-xdpi="300"
   inkscape:export-ydpi="300"
   xmlns:inkscape="http://www.inkscape.org/namespaces/inkscape"
   xmlns:sodipodi="http://sodipodi.sourceforge.net/DTD/sodipodi-0.dtd"
   xmlns="http://www.w3.org/2000/svg"
   xmlns:svg="http://www.w3.org/2000/svg">
  <sodipodi:namedview
     id="namedview7"
     pagecolor="#000000"
     bordercolor="#666666"
     borderopacity="1.0"
     inkscape:pageshadow="2"
     inkscape:pageopacity="0"
     inkscape:pagecheckerboard="0"
     inkscape:document-units="mm"
     showgrid="false"
     inkscape:snap-bbox="true"
     inkscape:zoom="0.82719097"
     inkscape:cx="-27.20049"
     inkscape:cy="205.51482"
     inkscape:window-width="1920"
     inkscape:window-height="1015"
     inkscape:window-x="0"
     inkscape:window-y="0"
     inkscape:window-maximized="1"
     inkscape:current-layer="layer1"
     showguides="true"
     inkscape:guide-bbox="true"
     inkscape:snap-global="false">
    <sodipodi:guide
       position="66.97966,132.08762"
       orientation="0,-1"
       id="guide8642" />
  </sodipodi:namedview>
  <defs
     id="defs2" />
  <g
     inkscape:label="Layer 1"
     inkscape:groupmode="layer"
     id="layer1"
     transform="translate(-79.96291,-30.853905)">
    <rect
       style="fill:#f68686;fill-opacity:0.245876;stroke:#ffffff;stroke-width:0.4;stroke-linecap:round;stroke-miterlimit:10;stroke-dasharray:none;stroke-opacity:1;paint-order:fill markers stroke"
       id="rect1604"
       width="11.585219"
       height="16.568171"
       x="101.967"
       y="79.910011"
       rx="10.822728"
       ry="10.822728" />
    <ellipse
       style="fill:#f68686;fill-opacity:0.245876;stroke:#ffffff;stroke-width:0.353895;stroke-linecap:round;stroke-miterlimit:10;stroke-dasharray:none;stroke-opacity:1;paint-order:fill markers stroke"
       id="path846"
       cx="107.80161"
       cy="71.927109"
       rx="11.183252"
       ry="14.402805" />
    <rect
       style="fill:#f68686;fill-opacity:0.245876;stroke:#ffffff;stroke-width:0.4;stroke-linecap:round;stroke-miterlimit:10;stroke-dasharray:none;stroke-opacity:1;paint-order:fill markers stroke"
       id="rect1500"
       width="43.371666"
       height="56.947025"
       x="85.955948"
       y="89.816132"
       ry="10.822738"
       rx="10.822738" />
    <rect
       style="fill:#f68686;fill-opacity:0.245876;stroke:#ffffff;stroke-width:0.4;stroke-linecap:round;stroke-miterlimit:10;stroke-dasharray:none;stroke-opacity:1;paint-order:fill markers stroke"
       id="rect1708"
       width="9.4076662"
       height="37.845959"
       x="80.16291"
       y="31.053905"
       rx="10.822728"
       ry="10.822728" />
    <rect
       style="fill:#f68686;fill-opacity:0.245876;stroke:#ffffff;stroke-width:0.4;stroke-linecap:round;stroke-miterlimit:10;stroke-dasharray:none;stroke-opacity:1;paint-order:fill markers stroke"
       id="rect1708-3"
       width="9.4076662"
       height="37.845959"
       x="80.317986"
       y="57.931953"
       rx="10.822728"
       ry="10.822728" />
    <rect
       style="fill:#f68686;fill-opacity:0.245876;stroke:#ffffff;stroke-width:0.4;stroke-linecap:round;stroke-miterlimit:10;stroke-dasharray:none;stroke-opacity:1;paint-order:fill markers stroke"
       id="rect1708-6"
       width="9.4076662"
       height="37.845959"
       x="125.27662"
       y="31.191843"
       rx="10.822728"
       ry="10.822728" />
    <rect
       style="fill:#f68686;fill-opacity:0.245876;stroke:#ffffff;stroke-width:0.4;stroke-linecap:round;stroke-miterlimit:10;stroke-dasharray:none;stroke-opacity:1;paint-order:fill markers stroke"
       id="rect1708-3-7"
       width="9.4076662"
       height="37.845959"
       x="125.43169"
       y="58.069889"
       rx="10.822728"
       ry="10.822728" />
    <rect
       style="fill:#a6f686;fill-opacity:0.218006;stroke-width:0.0548544;stroke-linecap:round;stroke-miterlimit:10;paint-order:fill markers stroke"
       id="rect1883"
       width="38.167488"
       height="38.389847"
       x="88.422607"
       y="147.03252"
       rx="0"
       ry="0"
       inkscape:export-filename="/home/mello/repos/ginnastica_posturale/img/seduto/rect1883.png"
       inkscape:export-xdpi="300"
       inkscape:export-ydpi="300" />
    <rect
       style="fill:#f68686;fill-opacity:0.245876;stroke:#ffffff;stroke-width:0.4;stroke-linecap:round;stroke-miterlimit:10;stroke-dasharray:none;stroke-opacity:1;paint-order:fill markers stroke"
       id="rect1708-5"
       width="12.98031"
       height="48.68248"
       x="90.164734"
       y="140.43958"
       rx="10.822728"
       ry="10.822728" />
    <rect
       style="fill:#f68686;fill-opacity:0.245876;stroke:#ffffff;stroke-width:0.4;stroke-linecap:round;stroke-miterlimit:10;stroke-dasharray:none;stroke-opacity:1;paint-order:fill markers stroke"
       id="rect1708-5-3"
       width="12.98031"
       height="48.68248"
       x="111.71346"
       y="140.64188"
       rx="10.822728"
       ry="10.822728" />
  </g>
</svg>
