<?xml version="1.0" encoding="UTF-8" standalone="no"?>
<!-- Created with Inkscape (http://www.inkscape.org/) -->

<svg
   width="153.83704mm"
   height="130.04773mm"
   viewBox="0 0 153.83704 130.04773"
   version="1.1"
   id="svg5"
   inkscape:version="1.1.1 (3bf5ae0d25, 2021-09-20)"
   sodipodi:docname="braccia_dietro.svg"
   inkscape:export-filename="/home/mello/repos/ginnastica_posturale/img/seduto/braccia_dietro.png"
   inkscape:export-xdpi="300"
   inkscape:export-ydpi="300"
   xmlns:inkscape="http://www.inkscape.org/namespaces/inkscape"
   xmlns:sodipodi="http://sodipodi.sourceforge.net/DTD/sodipodi-0.dtd"
   xmlns="http://www.w3.org/2000/svg"
   xmlns:svg="http://www.w3.org/2000/svg">
  <sodipodi:namedview
     id="namedview7"
     pagecolor="#000000"
     bordercolor="#666666"
     borderopacity="1.0"
     inkscape:pageshadow="2"
     inkscape:pageopacity="0"
     inkscape:pagecheckerboard="0"
     inkscape:document-units="mm"
     showgrid="false"
     inkscape:snap-bbox="true"
     inkscape:zoom="0.96568202"
     inkscape:cx="277.0063"
     inkscape:cy="370.72245"
     inkscape:window-width="1920"
     inkscape:window-height="1015"
     inkscape:window-x="0"
     inkscape:window-y="0"
     inkscape:window-maximized="1"
     inkscape:current-layer="layer1"
     showguides="true"
     inkscape:guide-bbox="true"
     inkscape:snap-global="false">
    <sodipodi:guide
       position="70.218171,130.59756"
       orientation="0,-1"
       id="guide8642" />
  </sodipodi:namedview>
  <defs
     id="defs2" />
  <g
     inkscape:label="Layer 1"
     inkscape:groupmode="layer"
     id="layer1"
     transform="translate(-76.724395,-57.986577)">
    <rect
       style="fill:#f68686;fill-opacity:0.245876;stroke:#ffffff;stroke-width:0.4;stroke-linecap:round;stroke-miterlimit:10;stroke-dasharray:none;stroke-opacity:1;paint-order:fill markers stroke"
       id="rect1604-0"
       width="11.585219"
       height="16.568171"
       x="120.07229"
       y="148.14766"
       rx="10.822728"
       ry="10.822728"
       transform="rotate(-25.296848)" />
    <rect
       style="fill:#f68686;fill-opacity:0.245876;stroke:#ffffff;stroke-width:0.300962;stroke-linecap:round;stroke-miterlimit:10;stroke-dasharray:none;stroke-opacity:1;paint-order:fill markers stroke"
       id="rect1500-6"
       width="24.510611"
       height="57.046062"
       x="162.09038"
       y="105.9408"
       ry="10.822738"
       rx="10.822738"
       transform="rotate(-5.5890471)" />
    <rect
       style="fill:#a6f686;fill-opacity:0.218006;stroke-width:0.0548544;stroke-linecap:round;stroke-miterlimit:10;paint-order:fill markers stroke"
       id="rect1883-7"
       width="38.167488"
       height="38.389847"
       x="175.80357"
       y="147.91887"
       rx="0"
       ry="0"
       inkscape:export-filename="/home/mello/repos/ginnastica_posturale/img/seduto/rect1883.png"
       inkscape:export-xdpi="300"
       inkscape:export-ydpi="300" />
    <rect
       style="fill:#f68686;fill-opacity:0.245876;stroke:#ffffff;stroke-width:0.4;stroke-linecap:round;stroke-miterlimit:10;stroke-dasharray:none;stroke-opacity:1;paint-order:fill markers stroke"
       id="rect1708-5-9"
       width="12.98031"
       height="48.68248"
       x="-147.36745"
       y="181.46295"
       rx="10.822728"
       ry="10.822728"
       transform="rotate(-90)" />
    <rect
       style="fill:#f68686;fill-opacity:0.245876;stroke:#ffffff;stroke-width:0.4;stroke-linecap:round;stroke-miterlimit:10;stroke-dasharray:none;stroke-opacity:1;paint-order:fill markers stroke"
       id="rect1708-5-3-2"
       width="12.98031"
       height="48.68248"
       x="217.38112"
       y="138.60289"
       rx="10.822728"
       ry="10.822728" />
    <rect
       style="fill:#f68686;fill-opacity:0.245876;stroke:#ffffff;stroke-width:0.4;stroke-linecap:round;stroke-miterlimit:10;stroke-dasharray:none;stroke-opacity:1;paint-order:fill markers stroke"
       id="rect1604-0-7"
       width="11.585219"
       height="16.568171"
       x="92.083038"
       y="80.521927"
       rx="10.822728"
       ry="10.822728" />
    <ellipse
       style="fill:#f68686;fill-opacity:0.245876;stroke:#ffffff;stroke-width:0.4;stroke-linecap:round;stroke-miterlimit:10;stroke-dasharray:none;stroke-opacity:1;paint-order:fill markers stroke"
       id="path846-3-5"
       cx="97.668869"
       cy="72.56633"
       rx="14.309823"
       ry="14.379753" />
    <rect
       style="fill:#f68686;fill-opacity:0.245876;stroke:#ffffff;stroke-width:0.300962;stroke-linecap:round;stroke-miterlimit:10;stroke-dasharray:none;stroke-opacity:1;paint-order:fill markers stroke"
       id="rect1500-6-3"
       width="24.510611"
       height="57.046062"
       x="84.977417"
       y="88.870499"
       ry="10.822738"
       rx="10.822738" />
    <rect
       style="fill:#a6f686;fill-opacity:0.218006;stroke-width:0.0548544;stroke-linecap:round;stroke-miterlimit:10;paint-order:fill markers stroke"
       id="rect1883-7-5"
       width="38.167488"
       height="38.389847"
       x="86.42366"
       y="148.4678"
       rx="0"
       ry="0"
       inkscape:export-filename="/home/mello/repos/ginnastica_posturale/img/seduto/rect1883.png"
       inkscape:export-xdpi="300"
       inkscape:export-ydpi="300" />
    <rect
       style="fill:#f68686;fill-opacity:0.245876;stroke:#ffffff;stroke-width:0.4;stroke-linecap:round;stroke-miterlimit:10;stroke-dasharray:none;stroke-opacity:1;paint-order:fill markers stroke"
       id="rect1708-5-9-6"
       width="12.98031"
       height="48.68248"
       x="-147.91637"
       y="92.083038"
       rx="10.822728"
       ry="10.822728"
       transform="rotate(-90)" />
    <rect
       style="fill:#f68686;fill-opacity:0.245876;stroke:#ffffff;stroke-width:0.4;stroke-linecap:round;stroke-miterlimit:10;stroke-dasharray:none;stroke-opacity:1;paint-order:fill markers stroke"
       id="rect1708-5-3-2-2"
       width="12.98031"
       height="48.68248"
       x="128.00121"
       y="139.15182"
       rx="10.822728"
       ry="10.822728" />
    <rect
       style="fill:#f68686;fill-opacity:0.245876;stroke:#ffffff;stroke-width:0.4;stroke-linecap:round;stroke-miterlimit:10;stroke-dasharray:none;stroke-opacity:1;paint-order:fill markers stroke"
       id="rect1708-6-1-9"
       width="9.4076662"
       height="37.845959"
       x="106.99661"
       y="66.265785"
       rx="10.822728"
       ry="10.822728"
       transform="rotate(12.936489)" />
    <rect
       style="fill:#f68686;fill-opacity:0.245876;stroke:#ffffff;stroke-width:0.4;stroke-linecap:round;stroke-miterlimit:10;stroke-dasharray:none;stroke-opacity:1;paint-order:fill markers stroke"
       id="rect1708-3-7-8-1"
       width="9.4076662"
       height="37.845959"
       x="107.15169"
       y="93.143814"
       rx="10.822728"
       ry="10.822728"
       transform="rotate(12.936489)" />
    <ellipse
       style="fill:#f68686;fill-opacity:0.245876;stroke:#ffffff;stroke-width:0.4;stroke-linecap:round;stroke-miterlimit:10;stroke-dasharray:none;stroke-opacity:1;paint-order:fill markers stroke"
       id="path846-3"
       cx="172.6756"
       cy="73.961601"
       rx="14.309823"
       ry="14.379753" />
    <rect
       style="fill:#f68686;fill-opacity:0.245876;stroke:#ffffff;stroke-width:0.4;stroke-linecap:round;stroke-miterlimit:10;stroke-dasharray:none;stroke-opacity:1;paint-order:fill markers stroke"
       id="rect1708-6-1"
       width="9.4076662"
       height="37.845959"
       x="200.80519"
       y="-12.106259"
       rx="10.822728"
       ry="10.822728"
       transform="rotate(29.301312)" />
    <rect
       style="fill:#f68686;fill-opacity:0.245876;stroke:#ffffff;stroke-width:0.4;stroke-linecap:round;stroke-miterlimit:10;stroke-dasharray:none;stroke-opacity:1;paint-order:fill markers stroke"
       id="rect1708-3-7-8"
       width="9.4076662"
       height="37.845959"
       x="200.96027"
       y="14.77177"
       rx="10.822728"
       ry="10.822728"
       transform="rotate(29.301312)" />
  </g>
</svg>
