<?xml version="1.0" encoding="UTF-8" standalone="no"?>
<!-- Created with Inkscape (http://www.inkscape.org/) -->

<svg
   width="141.24847mm"
   height="130.15292mm"
   viewBox="0 0 141.24848 130.15292"
   version="1.1"
   id="svg5"
   inkscape:version="1.1.1 (3bf5ae0d25, 2021-09-20)"
   sodipodi:docname="guarda_spalle.svg"
   inkscape:export-filename="/home/mello/repos/ginnastica_posturale/img/seduto/guarda_spalle.png"
   inkscape:export-xdpi="300"
   inkscape:export-ydpi="300"
   xmlns:inkscape="http://www.inkscape.org/namespaces/inkscape"
   xmlns:sodipodi="http://sodipodi.sourceforge.net/DTD/sodipodi-0.dtd"
   xmlns="http://www.w3.org/2000/svg"
   xmlns:svg="http://www.w3.org/2000/svg">
  <sodipodi:namedview
     id="namedview7"
     pagecolor="#000000"
     bordercolor="#666666"
     borderopacity="1.0"
     inkscape:pageshadow="2"
     inkscape:pageopacity="0"
     inkscape:pagecheckerboard="0"
     inkscape:document-units="mm"
     showgrid="false"
     inkscape:snap-bbox="true"
     inkscape:zoom="1.40277"
     inkscape:cx="198.8922"
     inkscape:cy="259.4866"
     inkscape:window-width="1920"
     inkscape:window-height="1015"
     inkscape:window-x="0"
     inkscape:window-y="0"
     inkscape:window-maximized="1"
     inkscape:current-layer="layer1"
     showguides="true"
     inkscape:guide-bbox="true"
     inkscape:snap-global="false">
    <sodipodi:guide
       position="70.512511,132.08762"
       orientation="0,-1"
       id="guide8642" />
  </sodipodi:namedview>
  <defs
     id="defs2" />
  <g
     inkscape:label="Layer 1"
     inkscape:groupmode="layer"
     id="layer1"
     transform="translate(-76.430058,-59.371434)">
    <rect
       style="fill:#f68686;fill-opacity:0.245876;stroke:#ffffff;stroke-width:0.4;stroke-linecap:round;stroke-miterlimit:10;stroke-dasharray:none;stroke-opacity:1;paint-order:fill markers stroke"
       id="rect1604"
       width="11.585219"
       height="16.568171"
       x="56.793068"
       y="113.19923"
       rx="10.822728"
       ry="10.822728"
       transform="rotate(-22.760601)" />
    <rect
       style="fill:#f68686;fill-opacity:0.245876;stroke:#ffffff;stroke-width:0.4;stroke-linecap:round;stroke-miterlimit:10;stroke-dasharray:none;stroke-opacity:1;paint-order:fill markers stroke"
       id="rect1500"
       width="43.371666"
       height="56.947025"
       x="85.955948"
       y="89.816132"
       ry="10.822738"
       rx="10.822738" />
    <rect
       style="fill:#f68686;fill-opacity:0.245876;stroke:#ffffff;stroke-width:0.4;stroke-linecap:round;stroke-miterlimit:10;stroke-dasharray:none;stroke-opacity:1;paint-order:fill markers stroke"
       id="rect1708"
       width="9.4076662"
       height="37.845959"
       x="76.630058"
       y="93.462868"
       rx="10.822728"
       ry="10.822728" />
    <rect
       style="fill:#f68686;fill-opacity:0.245876;stroke:#ffffff;stroke-width:0.4;stroke-linecap:round;stroke-miterlimit:10;stroke-dasharray:none;stroke-opacity:1;paint-order:fill markers stroke"
       id="rect1708-3"
       width="9.4076662"
       height="37.845959"
       x="76.785133"
       y="120.34091"
       rx="10.822728"
       ry="10.822728" />
    <rect
       style="fill:#f68686;fill-opacity:0.245876;stroke:#ffffff;stroke-width:0.4;stroke-linecap:round;stroke-miterlimit:10;stroke-dasharray:none;stroke-opacity:1;paint-order:fill markers stroke"
       id="rect1708-6"
       width="9.4076662"
       height="37.845959"
       x="129.0802"
       y="93.593445"
       rx="10.822728"
       ry="10.822728" />
    <rect
       style="fill:#f68686;fill-opacity:0.245876;stroke:#ffffff;stroke-width:0.4;stroke-linecap:round;stroke-miterlimit:10;stroke-dasharray:none;stroke-opacity:1;paint-order:fill markers stroke"
       id="rect1708-3-7"
       width="9.4076662"
       height="37.845959"
       x="129.23528"
       y="120.47149"
       rx="10.822728"
       ry="10.822728" />
    <rect
       style="fill:#a6f686;fill-opacity:0.218006;stroke-width:0.0548544;stroke-linecap:round;stroke-miterlimit:10;paint-order:fill markers stroke"
       id="rect1883"
       width="38.167488"
       height="38.389847"
       x="88.422607"
       y="147.03252"
       rx="0"
       ry="0"
       inkscape:export-filename="/home/mello/repos/ginnastica_posturale/img/seduto/rect1883.png"
       inkscape:export-xdpi="300"
       inkscape:export-ydpi="300" />
    <rect
       style="fill:#f68686;fill-opacity:0.245876;stroke:#ffffff;stroke-width:0.4;stroke-linecap:round;stroke-miterlimit:10;stroke-dasharray:none;stroke-opacity:1;paint-order:fill markers stroke"
       id="rect1708-5"
       width="12.98031"
       height="48.68248"
       x="90.164734"
       y="140.43958"
       rx="10.822728"
       ry="10.822728" />
    <rect
       style="fill:#f68686;fill-opacity:0.245876;stroke:#ffffff;stroke-width:0.4;stroke-linecap:round;stroke-miterlimit:10;stroke-dasharray:none;stroke-opacity:1;paint-order:fill markers stroke"
       id="rect1708-5-3"
       width="12.98031"
       height="48.68248"
       x="111.71346"
       y="140.64188"
       rx="10.822728"
       ry="10.822728" />
    <ellipse
       style="fill:#f68686;fill-opacity:0.245876;stroke:#ffffff;stroke-width:0.4;stroke-linecap:round;stroke-miterlimit:10;stroke-dasharray:none;stroke-opacity:1;paint-order:fill markers stroke"
       id="path846-3"
       cx="94.105858"
       cy="74.188377"
       rx="14.309823"
       ry="14.379753" />
    <rect
       style="fill:#f68686;fill-opacity:0.245876;stroke:#ffffff;stroke-width:0.4;stroke-linecap:round;stroke-miterlimit:10;stroke-dasharray:none;stroke-opacity:1;paint-order:fill markers stroke"
       id="rect1604-8"
       width="11.585219"
       height="16.568171"
       x="-214.32135"
       y="-0.80469918"
       rx="10.822728"
       ry="10.822728"
       transform="matrix(-0.92212941,-0.38688158,-0.38688158,0.92212941,0,0)" />
    <rect
       style="fill:#f68686;fill-opacity:0.245876;stroke:#ffffff;stroke-width:0.4;stroke-linecap:round;stroke-miterlimit:10;stroke-dasharray:none;stroke-opacity:1;paint-order:fill markers stroke"
       id="rect1500-4"
       width="43.371666"
       height="56.947025"
       x="-208.15263"
       y="89.578941"
       ry="10.822738"
       rx="10.822738"
       transform="scale(-1,1)" />
    <rect
       style="fill:#f68686;fill-opacity:0.245876;stroke:#ffffff;stroke-width:0.4;stroke-linecap:round;stroke-miterlimit:10;stroke-dasharray:none;stroke-opacity:1;paint-order:fill markers stroke"
       id="rect1708-50"
       width="9.4076662"
       height="37.845959"
       x="-217.47853"
       y="93.225677"
       rx="10.822728"
       ry="10.822728"
       transform="scale(-1,1)" />
    <rect
       style="fill:#f68686;fill-opacity:0.245876;stroke:#ffffff;stroke-width:0.4;stroke-linecap:round;stroke-miterlimit:10;stroke-dasharray:none;stroke-opacity:1;paint-order:fill markers stroke"
       id="rect1708-3-3"
       width="9.4076662"
       height="37.845959"
       x="-217.32346"
       y="120.10373"
       rx="10.822728"
       ry="10.822728"
       transform="scale(-1,1)" />
    <rect
       style="fill:#f68686;fill-opacity:0.245876;stroke:#ffffff;stroke-width:0.4;stroke-linecap:round;stroke-miterlimit:10;stroke-dasharray:none;stroke-opacity:1;paint-order:fill markers stroke"
       id="rect1708-6-6"
       width="9.4076662"
       height="37.845959"
       x="-165.02838"
       y="93.356255"
       rx="10.822728"
       ry="10.822728"
       transform="scale(-1,1)" />
    <rect
       style="fill:#f68686;fill-opacity:0.245876;stroke:#ffffff;stroke-width:0.4;stroke-linecap:round;stroke-miterlimit:10;stroke-dasharray:none;stroke-opacity:1;paint-order:fill markers stroke"
       id="rect1708-3-7-1"
       width="9.4076662"
       height="37.845959"
       x="-164.87331"
       y="120.2343"
       rx="10.822728"
       ry="10.822728"
       transform="scale(-1,1)" />
    <rect
       style="fill:#a6f686;fill-opacity:0.218006;stroke-width:0.0548544;stroke-linecap:round;stroke-miterlimit:10;paint-order:fill markers stroke"
       id="rect1883-0"
       width="38.167488"
       height="38.389847"
       x="-205.68597"
       y="146.79532"
       rx="0"
       ry="0"
       inkscape:export-filename="/home/mello/repos/ginnastica_posturale/img/seduto/rect1883.png"
       inkscape:export-xdpi="300"
       inkscape:export-ydpi="300"
       transform="scale(-1,1)" />
    <rect
       style="fill:#f68686;fill-opacity:0.245876;stroke:#ffffff;stroke-width:0.4;stroke-linecap:round;stroke-miterlimit:10;stroke-dasharray:none;stroke-opacity:1;paint-order:fill markers stroke"
       id="rect1708-5-6"
       width="12.98031"
       height="48.68248"
       x="-203.94385"
       y="140.20238"
       rx="10.822728"
       ry="10.822728"
       transform="scale(-1,1)" />
    <rect
       style="fill:#f68686;fill-opacity:0.245876;stroke:#ffffff;stroke-width:0.4;stroke-linecap:round;stroke-miterlimit:10;stroke-dasharray:none;stroke-opacity:1;paint-order:fill markers stroke"
       id="rect1708-5-3-3"
       width="12.98031"
       height="48.68248"
       x="-182.39513"
       y="140.40468"
       rx="10.822728"
       ry="10.822728"
       transform="scale(-1,1)" />
    <ellipse
       style="fill:#f68686;fill-opacity:0.245876;stroke:#ffffff;stroke-width:0.4;stroke-linecap:round;stroke-miterlimit:10;stroke-dasharray:none;stroke-opacity:1;paint-order:fill markers stroke"
       id="path846-3-2"
       cx="-200.00273"
       cy="73.951187"
       rx="14.309823"
       ry="14.379753"
       transform="scale(-1,1)" />
  </g>
</svg>
