<?xml version="1.0" encoding="UTF-8" standalone="no"?>
<!-- Created with Inkscape (http://www.inkscape.org/) -->

<svg
   width="143.54803mm"
   height="132.14969mm"
   viewBox="0 0 143.54804 132.14969"
   version="1.1"
   id="svg5"
   inkscape:version="1.1.1 (3bf5ae0d25, 2021-09-20)"
   sodipodi:docname="mani_incrociate.svg"
   inkscape:export-filename="/home/mello/repos/ginnastica_posturale/img/seduto/riposo.png"
   inkscape:export-xdpi="300"
   inkscape:export-ydpi="300"
   xmlns:inkscape="http://www.inkscape.org/namespaces/inkscape"
   xmlns:sodipodi="http://sodipodi.sourceforge.net/DTD/sodipodi-0.dtd"
   xmlns="http://www.w3.org/2000/svg"
   xmlns:svg="http://www.w3.org/2000/svg">
  <sodipodi:namedview
     id="namedview7"
     pagecolor="#000000"
     bordercolor="#666666"
     borderopacity="1.0"
     inkscape:pageshadow="2"
     inkscape:pageopacity="0"
     inkscape:pagecheckerboard="0"
     inkscape:document-units="mm"
     showgrid="false"
     inkscape:snap-bbox="true"
     inkscape:zoom="1.1895645"
     inkscape:cx="167.70844"
     inkscape:cy="214.36417"
     inkscape:window-width="1920"
     inkscape:window-height="1015"
     inkscape:window-x="0"
     inkscape:window-y="0"
     inkscape:window-maximized="1"
     inkscape:current-layer="layer1"
     showguides="true"
     inkscape:guide-bbox="true"
     inkscape:snap-global="false">
    <sodipodi:guide
       position="70.512511,132.08761"
       orientation="0,-1"
       id="guide8642" />
  </sodipodi:namedview>
  <defs
     id="defs2" />
  <g
     inkscape:label="Layer 1"
     inkscape:groupmode="layer"
     id="layer1"
     transform="translate(-76.430058,-57.374661)">
    <rect
       style="fill:#f68686;fill-opacity:0.245876;stroke:#ffffff;stroke-width:0.4;stroke-linecap:round;stroke-miterlimit:10;stroke-dasharray:none;stroke-opacity:1;paint-order:fill markers stroke"
       id="rect1708-6"
       width="9.4076662"
       height="37.845959"
       x="138.2876"
       y="25.32708"
       rx="10.822728"
       ry="10.822728"
       transform="rotate(13.777506)" />
    <rect
       style="fill:#f68686;fill-opacity:0.245876;stroke:#ffffff;stroke-width:0.4;stroke-linecap:round;stroke-miterlimit:10;stroke-dasharray:none;stroke-opacity:1;paint-order:fill markers stroke"
       id="rect1708-3-7"
       width="9.4076662"
       height="37.845959"
       x="133.50693"
       y="-46.379372"
       rx="10.822728"
       ry="10.822728"
       transform="rotate(42.123316)" />
    <rect
       style="fill:#f68686;fill-opacity:0.245876;stroke:#ffffff;stroke-width:0.4;stroke-linecap:round;stroke-miterlimit:10;stroke-dasharray:none;stroke-opacity:1;paint-order:fill markers stroke"
       id="rect1708-6-2"
       width="9.4076662"
       height="37.845959"
       x="-71.086632"
       y="76.207718"
       rx="10.822728"
       ry="10.822728"
       transform="matrix(-0.97122785,0.23815218,0.23815218,0.97122785,0,0)" />
    <rect
       style="fill:#f68686;fill-opacity:0.245876;stroke:#ffffff;stroke-width:0.4;stroke-linecap:round;stroke-miterlimit:10;stroke-dasharray:none;stroke-opacity:1;paint-order:fill markers stroke"
       id="rect1708-3-7-0"
       width="9.4076662"
       height="37.845959"
       x="-26.605202"
       y="97.809792"
       rx="10.822728"
       ry="10.822728"
       transform="matrix(-0.74170296,0.6707285,0.6707285,0.74170296,0,0)" />
    <rect
       style="fill:#f68686;fill-opacity:0.245876;stroke:#ffffff;stroke-width:0.4;stroke-linecap:round;stroke-miterlimit:10;stroke-dasharray:none;stroke-opacity:1;paint-order:fill markers stroke"
       id="rect1604"
       width="11.585219"
       height="16.568171"
       x="101.967"
       y="79.910011"
       rx="10.822728"
       ry="10.822728" />
    <ellipse
       style="fill:#f68686;fill-opacity:0.245876;stroke:#ffffff;stroke-width:0.353895;stroke-linecap:round;stroke-miterlimit:10;stroke-dasharray:none;stroke-opacity:1;paint-order:fill markers stroke"
       id="path846"
       cx="107.80161"
       cy="71.927109"
       rx="11.183252"
       ry="14.402805" />
    <rect
       style="fill:#f68686;fill-opacity:0.245876;stroke:#ffffff;stroke-width:0.4;stroke-linecap:round;stroke-miterlimit:10;stroke-dasharray:none;stroke-opacity:1;paint-order:fill markers stroke"
       id="rect1500"
       width="43.371666"
       height="56.947025"
       x="85.955948"
       y="89.816132"
       ry="10.822738"
       rx="10.822738" />
    <rect
       style="fill:#a6f686;fill-opacity:0.218006;stroke-width:0.0548544;stroke-linecap:round;stroke-miterlimit:10;paint-order:fill markers stroke"
       id="rect1883"
       width="38.167488"
       height="38.389847"
       x="88.422607"
       y="147.03252"
       rx="0"
       ry="0"
       inkscape:export-filename="/home/mello/repos/ginnastica_posturale/img/seduto/rect1883.png"
       inkscape:export-xdpi="300"
       inkscape:export-ydpi="300" />
    <rect
       style="fill:#f68686;fill-opacity:0.245876;stroke:#ffffff;stroke-width:0.4;stroke-linecap:round;stroke-miterlimit:10;stroke-dasharray:none;stroke-opacity:1;paint-order:fill markers stroke"
       id="rect1708-5"
       width="12.98031"
       height="48.68248"
       x="90.164734"
       y="140.43958"
       rx="10.822728"
       ry="10.822728" />
    <rect
       style="fill:#f68686;fill-opacity:0.245876;stroke:#ffffff;stroke-width:0.4;stroke-linecap:round;stroke-miterlimit:10;stroke-dasharray:none;stroke-opacity:1;paint-order:fill markers stroke"
       id="rect1708-5-3"
       width="12.98031"
       height="48.68248"
       x="111.71346"
       y="140.64188"
       rx="10.822728"
       ry="10.822728" />
    <rect
       style="fill:#f68686;fill-opacity:0.245876;stroke:#ffffff;stroke-width:0.4;stroke-linecap:round;stroke-miterlimit:10;stroke-dasharray:none;stroke-opacity:1;paint-order:fill markers stroke"
       id="rect1708-6-6"
       width="9.4076662"
       height="37.845959"
       x="208.62799"
       y="-80.85096"
       rx="10.822728"
       ry="10.822728"
       transform="rotate(37.428981)" />
    <rect
       style="fill:#f68686;fill-opacity:0.245876;stroke:#ffffff;stroke-width:0.4;stroke-linecap:round;stroke-miterlimit:10;stroke-dasharray:none;stroke-opacity:1;paint-order:fill markers stroke"
       id="rect1708-3-7-8"
       width="9.4076662"
       height="37.845959"
       x="125.49989"
       y="-189.11543"
       rx="10.822728"
       ry="10.822728"
       transform="rotate(72.695865)" />
    <rect
       style="fill:#f68686;fill-opacity:0.245876;stroke:#ffffff;stroke-width:0.4;stroke-linecap:round;stroke-miterlimit:10;stroke-dasharray:none;stroke-opacity:1;paint-order:fill markers stroke"
       id="rect1708-6-6-4"
       width="9.4076662"
       height="37.845959"
       x="-77.330627"
       y="138.20029"
       rx="10.822728"
       ry="10.822728"
       transform="matrix(-0.7941073,0.60777759,0.60777759,0.7941073,0,0)" />
    <rect
       style="fill:#f68686;fill-opacity:0.245876;stroke:#ffffff;stroke-width:0.4;stroke-linecap:round;stroke-miterlimit:10;stroke-dasharray:none;stroke-opacity:1;paint-order:fill markers stroke"
       id="rect1708-3-7-8-8"
       width="9.4076662"
       height="37.845959"
       x="18.499928"
       y="154.84212"
       rx="10.822728"
       ry="10.822728"
       transform="matrix(-0.29744378,0.95473934,0.95473934,0.29744378,0,0)" />
    <rect
       style="fill:#f68686;fill-opacity:0.245876;stroke:#ffffff;stroke-width:0.4;stroke-linecap:round;stroke-miterlimit:10;stroke-dasharray:none;stroke-opacity:1;paint-order:fill markers stroke"
       id="rect1604-6"
       width="11.585219"
       height="16.568171"
       x="174.50612"
       y="80.033218"
       rx="10.822728"
       ry="10.822728" />
    <ellipse
       style="fill:#f68686;fill-opacity:0.245876;stroke:#ffffff;stroke-width:0.353895;stroke-linecap:round;stroke-miterlimit:10;stroke-dasharray:none;stroke-opacity:1;paint-order:fill markers stroke"
       id="path846-6"
       cx="180.34073"
       cy="72.050308"
       rx="11.183252"
       ry="14.402805" />
    <rect
       style="fill:#f68686;fill-opacity:0.245876;stroke:#ffffff;stroke-width:0.4;stroke-linecap:round;stroke-miterlimit:10;stroke-dasharray:none;stroke-opacity:1;paint-order:fill markers stroke"
       id="rect1500-4"
       width="43.371666"
       height="56.947025"
       x="158.49507"
       y="89.939331"
       ry="10.822738"
       rx="10.822738" />
    <rect
       style="fill:#a6f686;fill-opacity:0.218006;stroke-width:0.0548544;stroke-linecap:round;stroke-miterlimit:10;paint-order:fill markers stroke"
       id="rect1883-9"
       width="38.167488"
       height="38.389847"
       x="160.96173"
       y="147.15572"
       rx="0"
       ry="0"
       inkscape:export-filename="/home/mello/repos/ginnastica_posturale/img/seduto/rect1883.png"
       inkscape:export-xdpi="300"
       inkscape:export-ydpi="300" />
    <rect
       style="fill:#f68686;fill-opacity:0.245876;stroke:#ffffff;stroke-width:0.4;stroke-linecap:round;stroke-miterlimit:10;stroke-dasharray:none;stroke-opacity:1;paint-order:fill markers stroke"
       id="rect1708-5-5"
       width="12.98031"
       height="48.68248"
       x="162.70386"
       y="140.56277"
       rx="10.822728"
       ry="10.822728" />
    <rect
       style="fill:#f68686;fill-opacity:0.245876;stroke:#ffffff;stroke-width:0.4;stroke-linecap:round;stroke-miterlimit:10;stroke-dasharray:none;stroke-opacity:1;paint-order:fill markers stroke"
       id="rect1708-5-3-0"
       width="12.98031"
       height="48.68248"
       x="184.25258"
       y="140.76508"
       rx="10.822728"
       ry="10.822728" />
  </g>
</svg>
