<?xml version="1.0" encoding="UTF-8" standalone="no"?>
<!-- Created with Inkscape (http://www.inkscape.org/) -->

<svg
   width="171.49182mm"
   height="126.75381mm"
   viewBox="0 0 171.49182 126.75381"
   version="1.1"
   id="svg5"
   inkscape:version="1.2.1 (9c6d41e410, 2022-07-14, custom)"
   sodipodi:docname="stira.svg"
   inkscape:export-filename="/home/mello/repos/ginnastica_posturale/img/seduto/riposo.png"
   inkscape:export-xdpi="300"
   inkscape:export-ydpi="300"
   xmlns:inkscape="http://www.inkscape.org/namespaces/inkscape"
   xmlns:sodipodi="http://sodipodi.sourceforge.net/DTD/sodipodi-0.dtd"
   xmlns="http://www.w3.org/2000/svg"
   xmlns:svg="http://www.w3.org/2000/svg">
  <sodipodi:namedview
     id="namedview7"
     pagecolor="#000000"
     bordercolor="#666666"
     borderopacity="1.0"
     inkscape:pageshadow="2"
     inkscape:pageopacity="0"
     inkscape:pagecheckerboard="0"
     inkscape:document-units="mm"
     showgrid="false"
     inkscape:snap-bbox="true"
     inkscape:zoom="0.81993151"
     inkscape:cx="166.47732"
     inkscape:cy="289.04853"
     inkscape:window-width="1920"
     inkscape:window-height="1021"
     inkscape:window-x="1920"
     inkscape:window-y="0"
     inkscape:window-maximized="1"
     inkscape:current-layer="layer1"
     showguides="true"
     inkscape:guide-bbox="true"
     inkscape:snap-global="false"
     inkscape:showpageshadow="2"
     inkscape:deskcolor="#000000" />
  <defs
     id="defs2" />
  <g
     inkscape:label="Layer 1"
     inkscape:groupmode="layer"
     id="layer1"
     transform="translate(-44.194153,-51.016559)">
    <rect
       style="fill:#f68686;fill-opacity:0.245876;stroke:#ffffff;stroke-width:0.4;stroke-linecap:round;stroke-miterlimit:10;stroke-dasharray:none;stroke-opacity:1;paint-order:fill markers stroke"
       id="rect1604-0"
       width="11.585219"
       height="16.568171"
       x="-71.318993"
       y="93.404572"
       rx="10.822728"
       ry="10.822728"
       transform="rotate(-90)" />
    <ellipse
       style="fill:#f68686;fill-opacity:0.245876;stroke:#ffffff;stroke-width:0.4;stroke-linecap:round;stroke-miterlimit:10;stroke-dasharray:none;stroke-opacity:1;paint-order:fill markers stroke"
       id="path846-3"
       cx="-65.526382"
       cy="86.069435"
       rx="14.309823"
       ry="14.379753"
       transform="rotate(-90)"
       inkscape:transform-center-x="-4.8582093"
       inkscape:transform-center-y="-23.643285" />
    <rect
       style="fill:#f68686;fill-opacity:0.245876;stroke:#ffffff;stroke-width:0.300962;stroke-linecap:round;stroke-miterlimit:10;stroke-dasharray:none;stroke-opacity:1;paint-order:fill markers stroke"
       id="rect1500-6"
       width="24.510611"
       height="57.046062"
       x="-78.217842"
       y="104.99113"
       ry="10.822738"
       rx="10.822738"
       transform="rotate(-90)" />
    <rect
       style="fill:#f68686;fill-opacity:0.245876;stroke:#ffffff;stroke-width:0.4;stroke-linecap:round;stroke-miterlimit:10;stroke-dasharray:none;stroke-opacity:1;paint-order:fill markers stroke"
       id="rect1708-5-9"
       width="12.98031"
       height="48.68248"
       x="126.081"
       y="98.145157"
       rx="10.822728"
       ry="10.822728"
       inkscape:transform-center-y="17.515008"
       transform="rotate(-14.352459)"
       inkscape:transform-center-x="-4.4816034" />
    <rect
       style="fill:#f68686;fill-opacity:0.245876;stroke:#ffffff;stroke-width:0.4;stroke-linecap:round;stroke-miterlimit:10;stroke-dasharray:none;stroke-opacity:1;paint-order:fill markers stroke"
       id="rect1708-5-3-2"
       width="12.98031"
       height="48.68248"
       x="-110.99812"
       y="159.78691"
       rx="10.822728"
       ry="10.822728"
       transform="rotate(-90)" />
    <rect
       style="fill:#f68686;fill-opacity:0.245876;stroke:#ffffff;stroke-width:0.4;stroke-linecap:round;stroke-miterlimit:10;stroke-dasharray:none;stroke-opacity:1;paint-order:fill markers stroke"
       id="rect1708-6-1"
       width="9.4076662"
       height="37.845959"
       x="127.35387"
       y="4.7675867"
       rx="10.822728"
       ry="10.822728"
       transform="rotate(25.05866)"
       inkscape:transform-center-x="5.7614836"
       inkscape:transform-center-y="12.322601" />
    <rect
       style="fill:#f68686;fill-opacity:0.245876;stroke:#ffffff;stroke-width:0.347147;stroke-linecap:round;stroke-miterlimit:10;stroke-dasharray:none;stroke-opacity:1;paint-order:fill markers stroke"
       id="rect1708-3-7-8"
       width="9.4071178"
       height="28.507082"
       x="123.5072"
       y="44.354324"
       rx="10.822454"
       ry="10.82188"
       transform="matrix(0.94259298,0.33394383,-0.34281844,0.93940168,0,0)" />
    <rect
       style="fill:#7b58a6;fill-opacity:0.16470589;stroke-width:0.0323654;stroke-linecap:round;stroke-miterlimit:10;paint-order:fill markers stroke"
       id="rect1883-7"
       width="2.9744332"
       height="171.49182"
       x="-114.27032"
       y="44.194153"
       rx="0"
       ry="0"
       inkscape:export-filename="/home/mello/repos/ginnastica_posturale/img/seduto/rect1883.png"
       inkscape:export-xdpi="300"
       inkscape:export-ydpi="300"
       transform="rotate(-90)" />
    <rect
       style="fill:#f68686;fill-opacity:0.245876;stroke:#ffffff;stroke-width:0.4;stroke-linecap:round;stroke-miterlimit:10;stroke-dasharray:none;stroke-opacity:1;paint-order:fill markers stroke"
       id="rect304"
       width="11.585219"
       height="16.568171"
       x="-197.77837"
       y="70.63868"
       rx="10.822728"
       ry="10.822728"
       transform="rotate(-112.24808)" />
    <ellipse
       style="fill:#f68686;fill-opacity:0.245876;stroke:#ffffff;stroke-width:0.4;stroke-linecap:round;stroke-miterlimit:10;stroke-dasharray:none;stroke-opacity:1;paint-order:fill markers stroke"
       id="ellipse306"
       cx="-159.47116"
       cy="134.32765"
       rx="14.309823"
       ry="14.379753"
       transform="rotate(-90)"
       inkscape:transform-center-x="-4.8582093"
       inkscape:transform-center-y="-23.643285" />
    <rect
       style="fill:#f68686;fill-opacity:0.245876;stroke:#ffffff;stroke-width:0.300962;stroke-linecap:round;stroke-miterlimit:10;stroke-dasharray:none;stroke-opacity:1;paint-order:fill markers stroke"
       id="rect308"
       width="24.510611"
       height="57.046062"
       x="-166.35077"
       y="141.09137"
       ry="10.822738"
       rx="10.822738"
       transform="rotate(-92.790061)" />
    <rect
       style="fill:#f68686;fill-opacity:0.245876;stroke:#ffffff;stroke-width:0.4;stroke-linecap:round;stroke-miterlimit:10;stroke-dasharray:none;stroke-opacity:1;paint-order:fill markers stroke"
       id="rect310"
       width="12.98031"
       height="48.68248"
       x="212.61198"
       y="-128.58945"
       rx="10.822728"
       ry="10.822728"
       inkscape:transform-center-y="-7.1758373"
       transform="rotate(66.774909)"
       inkscape:transform-center-x="-16.227615" />
    <rect
       style="fill:#f68686;fill-opacity:0.245876;stroke:#ffffff;stroke-width:0.4;stroke-linecap:round;stroke-miterlimit:10;stroke-dasharray:none;stroke-opacity:1;paint-order:fill markers stroke"
       id="rect312"
       width="12.98031"
       height="48.68248"
       x="-174.49817"
       y="159.78691"
       rx="10.822728"
       ry="10.822728"
       transform="rotate(-90)" />
    <rect
       style="fill:#f68686;fill-opacity:0.245876;stroke:#ffffff;stroke-width:0.4;stroke-linecap:round;stroke-miterlimit:10;stroke-dasharray:none;stroke-opacity:1;paint-order:fill markers stroke"
       id="rect314"
       width="9.4076662"
       height="37.845959"
       x="190.6416"
       y="-84.58049"
       rx="10.822728"
       ry="10.822728"
       transform="rotate(65.453839)"
       inkscape:transform-center-x="12.373636"
       inkscape:transform-center-y="5.6510389" />
    <rect
       style="fill:#7b58a6;fill-opacity:0.16470589;stroke-width:0.0323654;stroke-linecap:round;stroke-miterlimit:10;paint-order:fill markers stroke"
       id="rect318"
       width="2.9744332"
       height="171.49182"
       x="-177.77037"
       y="44.194153"
       rx="0"
       ry="0"
       inkscape:export-filename="/home/mello/repos/ginnastica_posturale/img/seduto/rect1883.png"
       inkscape:export-xdpi="300"
       inkscape:export-ydpi="300"
       transform="rotate(-90)" />
    <rect
       style="fill:#f68686;fill-opacity:0.245876;stroke:#ffffff;stroke-width:0.4;stroke-linecap:round;stroke-miterlimit:10;stroke-dasharray:none;stroke-opacity:1;paint-order:fill markers stroke"
       id="rect320"
       width="9.4076662"
       height="37.845959"
       x="194.01526"
       y="-40.715233"
       rx="10.822728"
       ry="10.822728"
       transform="rotate(61.33982)"
       inkscape:transform-center-x="11.936337"
       inkscape:transform-center-y="6.5241773" />
  </g>
</svg>
